<?xml version="1.0" encoding="UTF-8" standalone="no"?>
<!DOCTYPE svg PUBLIC "-//W3C//DTD SVG 1.1//EN" "http://www.w3.org/Graphics/SVG/1.1/DTD/svg11.dtd">
<svg width="100%" height="100%" viewBox="0 0 504 140" version="1.1" xmlns="http://www.w3.org/2000/svg" xmlns:xlink="http://www.w3.org/1999/xlink" xml:space="preserve" xmlns:serif="http://www.serif.com/" style="fill-rule:evenodd;clip-rule:evenodd;stroke-linejoin:round;stroke-miterlimit:2;">
    <g>
        <g transform="matrix(1.38764,0,0,1.36835,-97.5267,-50.5728)">
            <g transform="matrix(0.986095,0,0,1,1.40419,0)">
                <g transform="matrix(48,0,0,48,100.988,70.3998)">
                    <path d="M0.606,0.012L0.181,-0.435L0.181,-0.152C0.181,-0.079 0.215,-0.042 0.283,-0.042L0.283,-0L0.034,-0L0.034,-0.042C0.09,-0.042 0.118,-0.079 0.118,-0.152L0.118,-0.586C0.118,-0.608 0.085,-0.619 0.02,-0.619L0.02,-0.663L0.209,-0.663L0.584,-0.261L0.584,-0.518C0.584,-0.585 0.55,-0.619 0.483,-0.619L0.483,-0.663L0.731,-0.663L0.731,-0.619C0.67,-0.619 0.64,-0.585 0.64,-0.518L0.64,0.003L0.606,0.012Z" style="fill-rule:nonzero;"/>
                </g>
                <g transform="matrix(48,0,0,48,136.604,70.3998)">
                    <path d="M0.422,-0.104C0.403,-0.065 0.379,-0.035 0.35,-0.014C0.32,0.007 0.285,0.018 0.244,0.018C0.211,0.018 0.181,0.013 0.154,0.004C0.127,-0.005 0.103,-0.019 0.084,-0.038C0.065,-0.056 0.05,-0.079 0.039,-0.106C0.028,-0.132 0.023,-0.163 0.023,-0.198C0.023,-0.235 0.028,-0.267 0.04,-0.296C0.05,-0.324 0.066,-0.348 0.085,-0.367C0.104,-0.386 0.127,-0.401 0.153,-0.411C0.179,-0.421 0.207,-0.426 0.237,-0.426C0.27,-0.426 0.298,-0.422 0.323,-0.413C0.347,-0.404 0.367,-0.391 0.383,-0.375C0.399,-0.358 0.411,-0.339 0.419,-0.317C0.427,-0.295 0.431,-0.271 0.431,-0.245L0.431,-0.232C0.431,-0.227 0.431,-0.223 0.43,-0.218L0.171,-0.218C0.164,-0.218 0.16,-0.215 0.16,-0.21C0.16,-0.187 0.162,-0.166 0.166,-0.146C0.17,-0.126 0.177,-0.109 0.186,-0.094C0.195,-0.079 0.206,-0.068 0.22,-0.06C0.233,-0.051 0.25,-0.047 0.27,-0.047C0.295,-0.047 0.318,-0.055 0.338,-0.071C0.357,-0.087 0.375,-0.106 0.39,-0.127L0.422,-0.104ZM0.263,-0.259C0.273,-0.259 0.281,-0.262 0.288,-0.268C0.294,-0.273 0.297,-0.281 0.297,-0.291C0.297,-0.303 0.296,-0.314 0.294,-0.325C0.292,-0.336 0.289,-0.345 0.284,-0.353C0.279,-0.361 0.273,-0.368 0.265,-0.373C0.256,-0.378 0.246,-0.38 0.233,-0.38C0.219,-0.38 0.207,-0.377 0.198,-0.37C0.189,-0.363 0.181,-0.355 0.176,-0.344C0.17,-0.333 0.166,-0.321 0.164,-0.307C0.161,-0.293 0.16,-0.279 0.16,-0.265C0.16,-0.261 0.165,-0.259 0.175,-0.259L0.263,-0.259Z" style="fill-rule:nonzero;"/>
                </g>
                <g transform="matrix(48,0,0,48,158.684,70.3998)">
                    <path d="M0.212,0.019L0.048,-0.342C0.043,-0.351 0.037,-0.358 0.029,-0.361C0.02,-0.364 0.009,-0.365 -0.005,-0.365L-0.005,-0.407L0.253,-0.407L0.253,-0.365C0.214,-0.365 0.194,-0.359 0.194,-0.346C0.194,-0.342 0.194,-0.338 0.195,-0.335C0.196,-0.331 0.197,-0.327 0.198,-0.324L0.289,-0.113L0.369,-0.31C0.374,-0.32 0.376,-0.331 0.376,-0.342C0.376,-0.357 0.358,-0.365 0.321,-0.365L0.321,-0.407L0.492,-0.407L0.492,-0.365C0.475,-0.365 0.462,-0.361 0.454,-0.352C0.446,-0.343 0.438,-0.331 0.431,-0.315L0.29,0.01L0.212,0.019Z" style="fill-rule:nonzero;"/>
                </g>
                <g transform="matrix(48,0,0,48,181.916,70.3998)">
                    <path d="M0.48,-0.05C0.474,-0.029 0.461,-0.014 0.441,-0.004C0.42,0.006 0.399,0.011 0.376,0.011C0.357,0.011 0.338,0.006 0.32,-0.003C0.301,-0.012 0.289,-0.027 0.283,-0.046C0.261,-0.029 0.241,-0.015 0.223,-0.005C0.205,0.006 0.183,0.011 0.158,0.011C0.122,0.011 0.092,0.003 0.069,-0.014C0.045,-0.03 0.033,-0.053 0.033,-0.084C0.033,-0.109 0.038,-0.13 0.048,-0.149C0.058,-0.167 0.073,-0.183 0.093,-0.196C0.113,-0.209 0.138,-0.221 0.168,-0.23C0.198,-0.239 0.233,-0.248 0.274,-0.255L0.274,-0.287C0.274,-0.317 0.271,-0.339 0.266,-0.354C0.261,-0.369 0.247,-0.376 0.225,-0.376C0.204,-0.376 0.185,-0.373 0.17,-0.367C0.155,-0.361 0.147,-0.349 0.146,-0.332C0.149,-0.329 0.151,-0.324 0.153,-0.319C0.154,-0.314 0.155,-0.308 0.155,-0.302C0.155,-0.273 0.137,-0.258 0.101,-0.258C0.072,-0.258 0.058,-0.275 0.058,-0.308C0.058,-0.324 0.062,-0.339 0.069,-0.354C0.076,-0.368 0.086,-0.38 0.101,-0.391C0.116,-0.402 0.135,-0.41 0.158,-0.417C0.181,-0.423 0.21,-0.426 0.243,-0.426C0.264,-0.426 0.284,-0.424 0.303,-0.419C0.322,-0.413 0.339,-0.406 0.355,-0.395C0.37,-0.384 0.382,-0.37 0.391,-0.353C0.4,-0.335 0.405,-0.315 0.405,-0.29L0.405,-0.08C0.405,-0.06 0.414,-0.05 0.431,-0.05C0.436,-0.05 0.44,-0.051 0.445,-0.054C0.45,-0.056 0.455,-0.059 0.461,-0.062L0.48,-0.05ZM0.277,-0.21C0.239,-0.205 0.211,-0.195 0.193,-0.18C0.174,-0.165 0.165,-0.142 0.165,-0.109C0.165,-0.088 0.168,-0.072 0.175,-0.061C0.181,-0.05 0.193,-0.045 0.211,-0.045C0.228,-0.045 0.241,-0.048 0.25,-0.054C0.259,-0.059 0.265,-0.067 0.269,-0.076C0.272,-0.085 0.274,-0.095 0.275,-0.106C0.275,-0.117 0.276,-0.129 0.277,-0.14L0.277,-0.21Z" style="fill-rule:nonzero;"/>
                </g>
                <g transform="matrix(48,0,0,48,205.052,70.3998)">
                    <path d="M0.505,-0.008C0.484,-0.008 0.46,-0.006 0.433,-0.003C0.406,0 0.374,0.005 0.338,0.012L0.329,-0.042C0.324,-0.036 0.318,-0.029 0.311,-0.023C0.304,-0.016 0.295,-0.009 0.285,-0.003C0.275,0.003 0.264,0.008 0.253,0.012C0.241,0.016 0.229,0.018 0.216,0.018C0.189,0.018 0.163,0.014 0.14,0.006C0.116,-0.002 0.095,-0.014 0.078,-0.031C0.061,-0.048 0.047,-0.069 0.038,-0.096C0.028,-0.122 0.023,-0.154 0.023,-0.191C0.023,-0.233 0.029,-0.269 0.04,-0.299C0.051,-0.328 0.066,-0.353 0.085,-0.372C0.104,-0.391 0.125,-0.404 0.15,-0.413C0.175,-0.422 0.2,-0.426 0.226,-0.426C0.247,-0.426 0.267,-0.423 0.284,-0.417C0.301,-0.41 0.315,-0.401 0.326,-0.39L0.326,-0.586C0.326,-0.603 0.302,-0.612 0.253,-0.612L0.253,-0.654L0.438,-0.681C0.441,-0.654 0.442,-0.628 0.443,-0.602C0.443,-0.575 0.443,-0.548 0.443,-0.52L0.443,-0.125C0.443,-0.074 0.465,-0.048 0.509,-0.045L0.505,-0.008ZM0.245,-0.043C0.265,-0.043 0.281,-0.047 0.292,-0.055C0.303,-0.062 0.312,-0.073 0.318,-0.088C0.323,-0.102 0.327,-0.12 0.328,-0.141C0.329,-0.162 0.33,-0.186 0.33,-0.213C0.33,-0.267 0.323,-0.308 0.309,-0.335C0.295,-0.362 0.27,-0.376 0.235,-0.376C0.217,-0.376 0.203,-0.372 0.193,-0.363C0.183,-0.354 0.175,-0.342 0.171,-0.327C0.166,-0.312 0.162,-0.296 0.161,-0.278C0.16,-0.26 0.159,-0.242 0.159,-0.224C0.159,-0.202 0.16,-0.18 0.161,-0.159C0.162,-0.138 0.165,-0.118 0.17,-0.101C0.175,-0.084 0.184,-0.07 0.196,-0.059C0.207,-0.048 0.224,-0.043 0.245,-0.043Z" style="fill-rule:nonzero;"/>
                </g>
                <g transform="matrix(48,0,0,48,229.916,70.3998)">
                    <path d="M0.48,-0.05C0.474,-0.029 0.461,-0.014 0.441,-0.004C0.42,0.006 0.399,0.011 0.376,0.011C0.357,0.011 0.338,0.006 0.32,-0.003C0.301,-0.012 0.289,-0.027 0.283,-0.046C0.261,-0.029 0.241,-0.015 0.223,-0.005C0.205,0.006 0.183,0.011 0.158,0.011C0.122,0.011 0.092,0.003 0.069,-0.014C0.045,-0.03 0.033,-0.053 0.033,-0.084C0.033,-0.109 0.038,-0.13 0.048,-0.149C0.058,-0.167 0.073,-0.183 0.093,-0.196C0.113,-0.209 0.138,-0.221 0.168,-0.23C0.198,-0.239 0.233,-0.248 0.274,-0.255L0.274,-0.287C0.274,-0.317 0.271,-0.339 0.266,-0.354C0.261,-0.369 0.247,-0.376 0.225,-0.376C0.204,-0.376 0.185,-0.373 0.17,-0.367C0.155,-0.361 0.147,-0.349 0.146,-0.332C0.149,-0.329 0.151,-0.324 0.153,-0.319C0.154,-0.314 0.155,-0.308 0.155,-0.302C0.155,-0.273 0.137,-0.258 0.101,-0.258C0.072,-0.258 0.058,-0.275 0.058,-0.308C0.058,-0.324 0.062,-0.339 0.069,-0.354C0.076,-0.368 0.086,-0.38 0.101,-0.391C0.116,-0.402 0.135,-0.41 0.158,-0.417C0.181,-0.423 0.21,-0.426 0.243,-0.426C0.264,-0.426 0.284,-0.424 0.303,-0.419C0.322,-0.413 0.339,-0.406 0.355,-0.395C0.37,-0.384 0.382,-0.37 0.391,-0.353C0.4,-0.335 0.405,-0.315 0.405,-0.29L0.405,-0.08C0.405,-0.06 0.414,-0.05 0.431,-0.05C0.436,-0.05 0.44,-0.051 0.445,-0.054C0.45,-0.056 0.455,-0.059 0.461,-0.062L0.48,-0.05ZM0.277,-0.21C0.239,-0.205 0.211,-0.195 0.193,-0.18C0.174,-0.165 0.165,-0.142 0.165,-0.109C0.165,-0.088 0.168,-0.072 0.175,-0.061C0.181,-0.05 0.193,-0.045 0.211,-0.045C0.228,-0.045 0.241,-0.048 0.25,-0.054C0.259,-0.059 0.265,-0.067 0.269,-0.076C0.272,-0.085 0.274,-0.095 0.275,-0.106C0.275,-0.117 0.276,-0.129 0.277,-0.14L0.277,-0.21Z" style="fill-rule:nonzero;"/>
                </g>
                <g transform="matrix(48,0,0,48,266.924,70.3998)">
                    <path d="M0.413,-0.09C0.406,-0.071 0.396,-0.054 0.383,-0.041C0.37,-0.028 0.355,-0.017 0.34,-0.008C0.324,0.002 0.307,0.008 0.29,0.012C0.272,0.016 0.255,0.018 0.239,0.018C0.209,0.018 0.182,0.013 0.157,0.004C0.132,-0.005 0.11,-0.019 0.092,-0.037C0.073,-0.055 0.059,-0.077 0.049,-0.104C0.038,-0.131 0.033,-0.161 0.033,-0.195C0.033,-0.269 0.054,-0.326 0.097,-0.366C0.139,-0.406 0.197,-0.426 0.272,-0.426C0.288,-0.426 0.304,-0.424 0.32,-0.419C0.336,-0.414 0.35,-0.408 0.363,-0.399C0.375,-0.39 0.385,-0.38 0.393,-0.368C0.4,-0.355 0.404,-0.342 0.404,-0.327C0.404,-0.312 0.398,-0.3 0.387,-0.29C0.375,-0.279 0.361,-0.274 0.346,-0.274C0.315,-0.274 0.299,-0.29 0.299,-0.323C0.299,-0.326 0.3,-0.33 0.301,-0.337C0.302,-0.343 0.303,-0.348 0.303,-0.353C0.303,-0.364 0.298,-0.372 0.287,-0.377C0.276,-0.382 0.265,-0.384 0.254,-0.384C0.237,-0.384 0.223,-0.379 0.212,-0.37C0.201,-0.36 0.193,-0.347 0.187,-0.332C0.181,-0.317 0.177,-0.3 0.175,-0.282C0.173,-0.263 0.172,-0.245 0.172,-0.227C0.172,-0.202 0.173,-0.179 0.177,-0.158C0.18,-0.137 0.185,-0.118 0.193,-0.102C0.2,-0.086 0.211,-0.073 0.224,-0.064C0.237,-0.055 0.254,-0.05 0.275,-0.05C0.316,-0.05 0.35,-0.07 0.376,-0.11L0.413,-0.09Z" style="fill-rule:nonzero;"/>
                </g>
                <g transform="matrix(48,0,0,48,287.324,70.3998)">
                    <path d="M0.48,-0.21C0.48,-0.17 0.473,-0.136 0.46,-0.107C0.447,-0.078 0.429,-0.055 0.408,-0.037C0.386,-0.018 0.362,-0.005 0.335,0.005C0.308,0.014 0.28,0.018 0.252,0.018C0.221,0.018 0.191,0.013 0.163,0.003C0.135,-0.007 0.111,-0.021 0.09,-0.04C0.069,-0.059 0.053,-0.081 0.041,-0.108C0.029,-0.135 0.023,-0.165 0.023,-0.198C0.023,-0.241 0.03,-0.277 0.043,-0.306C0.056,-0.335 0.074,-0.358 0.096,-0.376C0.117,-0.394 0.142,-0.407 0.17,-0.415C0.198,-0.422 0.227,-0.426 0.256,-0.426C0.286,-0.426 0.315,-0.421 0.342,-0.411C0.369,-0.401 0.393,-0.387 0.414,-0.368C0.434,-0.349 0.45,-0.327 0.462,-0.3C0.474,-0.273 0.48,-0.243 0.48,-0.21ZM0.256,-0.027C0.277,-0.027 0.293,-0.032 0.304,-0.043C0.315,-0.054 0.324,-0.067 0.33,-0.082C0.335,-0.097 0.339,-0.112 0.34,-0.128C0.341,-0.144 0.341,-0.157 0.341,-0.168C0.341,-0.189 0.341,-0.211 0.34,-0.236C0.339,-0.261 0.335,-0.284 0.33,-0.305C0.324,-0.326 0.315,-0.344 0.303,-0.359C0.291,-0.373 0.274,-0.38 0.252,-0.38C0.231,-0.38 0.214,-0.375 0.202,-0.364C0.19,-0.353 0.181,-0.339 0.176,-0.325C0.17,-0.31 0.167,-0.294 0.166,-0.278C0.165,-0.262 0.164,-0.249 0.164,-0.239C0.164,-0.218 0.165,-0.196 0.166,-0.171C0.167,-0.146 0.17,-0.123 0.176,-0.102C0.181,-0.081 0.19,-0.063 0.203,-0.049C0.215,-0.034 0.233,-0.027 0.256,-0.027Z" style="fill-rule:nonzero;"/>
                </g>
            </g>
            <g transform="matrix(0.986095,0,0,1,4.29078,0)">
                <g transform="matrix(48,0,0,48,308.588,70.3998)">
                    <path d="M0.38,0.005C0.377,0 0.376,-0.005 0.375,-0.01C0.374,-0.015 0.374,-0.021 0.374,-0.028L0.374,-0.043C0.367,-0.034 0.361,-0.027 0.354,-0.02C0.347,-0.013 0.339,-0.008 0.33,-0.003C0.321,0.002 0.31,0.005 0.298,0.008C0.285,0.01 0.27,0.011 0.253,0.011C0.227,0.011 0.204,0.008 0.183,0.004C0.162,-0.002 0.143,-0.01 0.129,-0.022C0.114,-0.033 0.102,-0.049 0.094,-0.069C0.086,-0.088 0.082,-0.113 0.082,-0.143L0.082,-0.338C0.082,-0.356 0.061,-0.365 0.02,-0.365L0.014,-0.402L0.213,-0.415L0.213,-0.161C0.213,-0.146 0.214,-0.132 0.215,-0.119C0.216,-0.106 0.218,-0.094 0.223,-0.084C0.227,-0.073 0.233,-0.065 0.242,-0.059C0.251,-0.053 0.263,-0.05 0.278,-0.05C0.302,-0.05 0.321,-0.058 0.335,-0.075C0.349,-0.092 0.361,-0.115 0.37,-0.145L0.37,-0.338C0.37,-0.356 0.347,-0.365 0.301,-0.365L0.295,-0.402L0.501,-0.415L0.501,-0.084C0.501,-0.066 0.523,-0.056 0.567,-0.054L0.577,-0.015L0.38,0.005Z" style="fill-rule:nonzero;"/>
                </g>
            </g>
            <g transform="matrix(0.986095,0,0,1,4.69093,0)">
                <g transform="matrix(48,0,0,48,337.366,70.3998)">
                    <path d="M0.331,-0L0.331,-0.042C0.352,-0.042 0.367,-0.045 0.376,-0.051C0.385,-0.057 0.389,-0.065 0.389,-0.076L0.389,-0.235C0.389,-0.277 0.383,-0.309 0.37,-0.33C0.357,-0.351 0.335,-0.362 0.305,-0.362C0.275,-0.362 0.253,-0.353 0.24,-0.334C0.226,-0.315 0.219,-0.286 0.219,-0.249L0.219,-0.076C0.219,-0.065 0.224,-0.057 0.235,-0.051C0.245,-0.045 0.262,-0.042 0.285,-0.042L0.285,-0L0.033,-0L0.033,-0.042C0.07,-0.042 0.088,-0.055 0.088,-0.08L0.088,-0.327C0.088,-0.345 0.072,-0.354 0.041,-0.354L0.022,-0.354L0.022,-0.392L0.208,-0.427C0.213,-0.422 0.215,-0.413 0.215,-0.4L0.215,-0.364C0.231,-0.384 0.251,-0.399 0.276,-0.409C0.301,-0.419 0.327,-0.424 0.355,-0.424C0.376,-0.424 0.397,-0.421 0.417,-0.416C0.437,-0.41 0.455,-0.401 0.47,-0.39C0.485,-0.378 0.498,-0.364 0.507,-0.347C0.516,-0.33 0.521,-0.31 0.521,-0.287L0.521,-0.072C0.521,-0.052 0.542,-0.042 0.584,-0.042L0.584,-0L0.331,-0Z" style="fill-rule:nonzero;"/>
                </g>
                <g transform="matrix(48,0,0,48,366.982,70.3998)">
                    <path d="M0.343,-0.11C0.343,-0.091 0.339,-0.073 0.33,-0.058C0.321,-0.043 0.309,-0.03 0.294,-0.019C0.279,-0.008 0.263,-0 0.244,0.006C0.225,0.011 0.205,0.014 0.185,0.014C0.169,0.014 0.154,0.012 0.14,0.008C0.125,0.004 0.112,-0.002 0.101,-0.011C0.09,-0.019 0.081,-0.029 0.074,-0.042C0.067,-0.055 0.064,-0.07 0.064,-0.087L0.064,-0.358L0,-0.358L0.005,-0.399C0.02,-0.402 0.035,-0.408 0.051,-0.417C0.067,-0.426 0.082,-0.436 0.096,-0.45C0.11,-0.463 0.122,-0.477 0.133,-0.494C0.143,-0.511 0.15,-0.528 0.154,-0.546L0.195,-0.552L0.195,-0.407L0.266,-0.407C0.273,-0.407 0.282,-0.408 0.291,-0.41C0.3,-0.412 0.309,-0.414 0.317,-0.417L0.317,-0.358L0.195,-0.358L0.195,-0.109C0.195,-0.102 0.195,-0.095 0.196,-0.089C0.196,-0.082 0.197,-0.075 0.2,-0.07C0.203,-0.064 0.207,-0.059 0.213,-0.056C0.218,-0.052 0.226,-0.05 0.237,-0.05C0.254,-0.05 0.27,-0.057 0.283,-0.07C0.296,-0.083 0.305,-0.1 0.308,-0.121L0.343,-0.11Z" style="fill-rule:nonzero;"/>
                </g>
                <g transform="matrix(48,0,0,48,383.254,70.3998)">
                    <path d="M0.054,-0.332C0.043,-0.354 0.024,-0.365 -0.002,-0.365L-0.002,-0.407L0.248,-0.407L0.248,-0.365L0.223,-0.365C0.204,-0.365 0.194,-0.361 0.193,-0.352C0.193,-0.345 0.193,-0.339 0.194,-0.334C0.194,-0.328 0.196,-0.322 0.199,-0.317L0.291,-0.119L0.361,-0.296C0.364,-0.305 0.367,-0.314 0.368,-0.322C0.369,-0.329 0.37,-0.336 0.371,-0.342C0.371,-0.357 0.35,-0.365 0.309,-0.365L0.309,-0.407L0.487,-0.407L0.487,-0.365C0.457,-0.365 0.438,-0.355 0.431,-0.336L0.319,-0.054C0.306,-0.023 0.294,0.007 0.282,0.034C0.269,0.061 0.256,0.084 0.241,0.104C0.226,0.124 0.211,0.14 0.194,0.152C0.177,0.163 0.157,0.169 0.136,0.169C0.093,0.169 0.072,0.151 0.072,0.116C0.072,0.079 0.087,0.061 0.116,0.061C0.127,0.061 0.136,0.064 0.141,0.069C0.146,0.074 0.149,0.08 0.152,0.087C0.154,0.094 0.156,0.1 0.157,0.105C0.158,0.11 0.162,0.113 0.167,0.113C0.174,0.113 0.183,0.107 0.194,0.095C0.204,0.082 0.215,0.06 0.228,0.027L0.054,-0.332Z" style="fill-rule:nonzero;"/>
                </g>
            </g>
        </g>
        <g transform="matrix(1.90682,0,0,1.90682,-230.957,-49.5079)">
            <g transform="matrix(50.2908,0,0,50.2908,144.53,91.9917)">
                <path d="M0.307,-0.106L0.301,-0.106C0.292,-0.099 0.278,-0.082 0.259,-0.055C0.24,-0.027 0.226,-0.008 0.215,0.002L0.2,0.002C0.181,0.002 0.156,-0.006 0.124,-0.021C0.085,-0.04 0.059,-0.061 0.046,-0.083C0.033,-0.106 0.026,-0.139 0.026,-0.181C0.026,-0.194 0.026,-0.211 0.027,-0.231C0.027,-0.25 0.027,-0.273 0.028,-0.3C0.029,-0.327 0.029,-0.35 0.03,-0.37C0.03,-0.39 0.03,-0.407 0.03,-0.42L0.036,-0.429C0.071,-0.429 0.119,-0.444 0.181,-0.473C0.186,-0.476 0.204,-0.489 0.235,-0.512C0.26,-0.531 0.277,-0.541 0.286,-0.541C0.29,-0.541 0.295,-0.54 0.3,-0.538C0.348,-0.517 0.406,-0.506 0.475,-0.504C0.478,-0.501 0.48,-0.497 0.48,-0.492C0.48,-0.488 0.479,-0.482 0.477,-0.475C0.474,-0.467 0.473,-0.461 0.473,-0.458C0.472,-0.441 0.471,-0.419 0.47,-0.392C0.469,-0.365 0.469,-0.333 0.469,-0.296C0.469,-0.233 0.471,-0.19 0.475,-0.165C0.478,-0.142 0.492,-0.131 0.519,-0.131C0.522,-0.136 0.525,-0.142 0.529,-0.148C0.532,-0.154 0.536,-0.16 0.541,-0.167C0.544,-0.167 0.546,-0.164 0.546,-0.157C0.546,-0.145 0.543,-0.132 0.538,-0.118C0.535,-0.109 0.53,-0.099 0.523,-0.088C0.516,-0.077 0.507,-0.063 0.497,-0.048C0.474,-0.012 0.457,0.006 0.448,0.006C0.417,0.006 0.388,-0.005 0.359,-0.027C0.331,-0.05 0.314,-0.076 0.307,-0.106ZM0.325,-0.117C0.326,-0.112 0.328,-0.105 0.33,-0.098C0.332,-0.091 0.335,-0.082 0.338,-0.073C0.371,-0.036 0.405,-0.018 0.44,-0.018C0.441,-0.024 0.438,-0.028 0.431,-0.03C0.371,-0.044 0.341,-0.08 0.341,-0.139L0.341,-0.188C0.341,-0.207 0.341,-0.23 0.342,-0.257C0.343,-0.284 0.343,-0.307 0.344,-0.326C0.344,-0.345 0.344,-0.362 0.344,-0.375C0.344,-0.385 0.342,-0.393 0.337,-0.398C0.334,-0.399 0.311,-0.407 0.269,-0.421C0.248,-0.428 0.231,-0.434 0.219,-0.438C0.206,-0.441 0.199,-0.443 0.196,-0.444L0.196,-0.435C0.196,-0.426 0.218,-0.416 0.261,-0.407C0.304,-0.398 0.326,-0.385 0.326,-0.369L0.323,-0.362L0.326,-0.332C0.326,-0.328 0.326,-0.323 0.326,-0.316L0.324,-0.275C0.323,-0.268 0.323,-0.263 0.323,-0.259L0.323,-0.229C0.323,-0.217 0.323,-0.203 0.324,-0.187C0.325,-0.172 0.325,-0.158 0.325,-0.146L0.325,-0.117ZM0.186,-0.023C0.184,-0.029 0.178,-0.034 0.167,-0.038L0.164,-0.041C0.121,-0.055 0.094,-0.074 0.081,-0.098C0.069,-0.119 0.063,-0.152 0.063,-0.198C0.063,-0.209 0.063,-0.224 0.064,-0.241C0.064,-0.258 0.064,-0.278 0.065,-0.301C0.067,-0.347 0.068,-0.381 0.068,-0.404L0.063,-0.406L0.055,-0.406C0.05,-0.397 0.047,-0.371 0.047,-0.329L0.047,-0.177C0.047,-0.116 0.07,-0.073 0.117,-0.048C0.12,-0.047 0.124,-0.045 0.129,-0.044C0.133,-0.043 0.138,-0.041 0.145,-0.038C0.154,-0.033 0.168,-0.028 0.186,-0.023ZM0.14,-0.073C0.147,-0.071 0.158,-0.066 0.173,-0.058C0.184,-0.051 0.197,-0.048 0.213,-0.048C0.214,-0.048 0.216,-0.048 0.219,-0.049C0.221,-0.05 0.223,-0.05 0.224,-0.05L0.22,-0.057L0.213,-0.061C0.162,-0.09 0.134,-0.106 0.131,-0.11C0.114,-0.127 0.105,-0.158 0.105,-0.202L0.105,-0.244C0.105,-0.26 0.105,-0.279 0.106,-0.3C0.107,-0.321 0.107,-0.34 0.107,-0.357L0.107,-0.398C0.107,-0.399 0.107,-0.402 0.107,-0.406C0.106,-0.409 0.106,-0.414 0.105,-0.42C0.104,-0.421 0.103,-0.421 0.101,-0.421C0.091,-0.421 0.085,-0.416 0.084,-0.407C0.083,-0.402 0.083,-0.388 0.083,-0.363C0.082,-0.337 0.082,-0.302 0.082,-0.256L0.082,-0.162C0.082,-0.154 0.085,-0.142 0.092,-0.127C0.099,-0.109 0.106,-0.099 0.111,-0.098L0.14,-0.073ZM0.319,-0.424C0.334,-0.424 0.345,-0.423 0.35,-0.421C0.359,-0.417 0.363,-0.408 0.363,-0.395L0.363,-0.154C0.363,-0.119 0.369,-0.096 0.38,-0.085C0.398,-0.066 0.414,-0.056 0.427,-0.053C0.429,-0.052 0.433,-0.051 0.438,-0.05L0.463,-0.05L0.467,-0.054L0.465,-0.056C0.428,-0.072 0.405,-0.092 0.394,-0.117C0.385,-0.134 0.381,-0.165 0.381,-0.21L0.381,-0.24C0.381,-0.251 0.381,-0.265 0.382,-0.28C0.383,-0.295 0.383,-0.309 0.384,-0.321C0.384,-0.333 0.384,-0.343 0.384,-0.35L0.384,-0.412C0.384,-0.421 0.381,-0.428 0.376,-0.433C0.359,-0.438 0.339,-0.444 0.316,-0.451C0.292,-0.458 0.264,-0.467 0.232,-0.477C0.223,-0.478 0.219,-0.474 0.219,-0.466C0.219,-0.45 0.251,-0.438 0.315,-0.429L0.319,-0.424ZM0.188,-0.36L0.188,-0.217C0.188,-0.174 0.203,-0.148 0.232,-0.14L0.237,-0.136L0.238,-0.137C0.251,-0.13 0.265,-0.127 0.279,-0.127C0.298,-0.127 0.307,-0.157 0.307,-0.218L0.307,-0.236C0.307,-0.243 0.307,-0.25 0.306,-0.258C0.305,-0.266 0.305,-0.272 0.305,-0.277L0.305,-0.285L0.307,-0.307L0.307,-0.356C0.307,-0.36 0.305,-0.364 0.3,-0.369C0.299,-0.37 0.294,-0.373 0.285,-0.376C0.276,-0.379 0.263,-0.384 0.248,-0.389C0.216,-0.4 0.197,-0.406 0.192,-0.406C0.191,-0.391 0.19,-0.379 0.189,-0.372C0.188,-0.365 0.188,-0.361 0.188,-0.36Z" style="fill-rule:nonzero;"/>
            </g>
            <g transform="matrix(50.2908,0,0,50.2908,173.196,91.9917)">
                <path d="M0.068,-0.043C0.051,-0.043 0.042,-0.038 0.042,-0.028C0.042,-0.021 0.047,-0.017 0.057,-0.014C0.067,-0.011 0.072,-0.007 0.072,-0.004C0.072,0.008 0.066,0.014 0.053,0.014C0.034,0.014 0.024,0.004 0.024,-0.016C0.024,-0.035 0.044,-0.071 0.084,-0.122C0.093,-0.129 0.104,-0.14 0.118,-0.153L0.118,-0.155C0.118,-0.158 0.11,-0.165 0.095,-0.176C0.067,-0.197 0.048,-0.225 0.038,-0.258C0.031,-0.281 0.028,-0.314 0.028,-0.359C0.028,-0.372 0.032,-0.383 0.04,-0.391C0.046,-0.397 0.056,-0.403 0.069,-0.409C0.123,-0.434 0.173,-0.465 0.22,-0.5C0.244,-0.518 0.258,-0.527 0.262,-0.527C0.267,-0.527 0.28,-0.52 0.299,-0.506C0.319,-0.492 0.331,-0.485 0.336,-0.484C0.364,-0.477 0.388,-0.473 0.407,-0.473C0.433,-0.473 0.446,-0.478 0.446,-0.488C0.446,-0.499 0.441,-0.505 0.431,-0.506C0.436,-0.505 0.436,-0.505 0.431,-0.505L0.401,-0.505C0.4,-0.509 0.399,-0.512 0.398,-0.515C0.398,-0.53 0.407,-0.538 0.426,-0.538C0.435,-0.538 0.443,-0.536 0.451,-0.531C0.459,-0.526 0.463,-0.519 0.463,-0.511C0.463,-0.508 0.463,-0.505 0.463,-0.502C0.462,-0.498 0.462,-0.494 0.461,-0.489C0.46,-0.484 0.46,-0.479 0.46,-0.475C0.459,-0.471 0.459,-0.468 0.459,-0.466C0.459,-0.463 0.447,-0.446 0.424,-0.417C0.401,-0.388 0.39,-0.372 0.39,-0.369C0.39,-0.364 0.395,-0.358 0.405,-0.352C0.425,-0.34 0.44,-0.325 0.451,-0.306C0.474,-0.265 0.485,-0.218 0.485,-0.165C0.485,-0.162 0.486,-0.157 0.487,-0.152C0.488,-0.146 0.488,-0.141 0.488,-0.138C0.488,-0.115 0.449,-0.083 0.37,-0.04C0.295,0.001 0.245,0.022 0.221,0.022C0.219,0.022 0.201,0.011 0.166,-0.01C0.133,-0.032 0.1,-0.043 0.068,-0.043ZM0.057,-0.059C0.076,-0.056 0.092,-0.053 0.104,-0.051C0.115,-0.048 0.123,-0.046 0.128,-0.045C0.145,-0.04 0.166,-0.028 0.193,-0.009C0.208,0 0.218,0.005 0.224,0.005C0.232,0.005 0.236,0.003 0.236,-0.001C0.236,-0.01 0.218,-0.024 0.183,-0.043C0.148,-0.062 0.124,-0.072 0.113,-0.072L0.064,-0.072C0.059,-0.072 0.057,-0.068 0.057,-0.059ZM0.176,-0.063C0.181,-0.058 0.192,-0.05 0.209,-0.041C0.225,-0.032 0.236,-0.025 0.242,-0.018C0.248,-0.011 0.253,-0.007 0.256,-0.007L0.262,-0.007C0.274,-0.007 0.28,-0.011 0.28,-0.018C0.28,-0.022 0.274,-0.029 0.263,-0.038C0.203,-0.084 0.15,-0.107 0.103,-0.107C0.092,-0.107 0.086,-0.107 0.085,-0.106C0.08,-0.104 0.078,-0.099 0.078,-0.091C0.081,-0.086 0.089,-0.083 0.103,-0.081L0.132,-0.078C0.137,-0.077 0.144,-0.075 0.151,-0.072C0.158,-0.069 0.167,-0.066 0.176,-0.063ZM0.367,-0.056C0.381,-0.056 0.388,-0.067 0.388,-0.09C0.388,-0.163 0.362,-0.224 0.309,-0.273C0.304,-0.278 0.301,-0.28 0.298,-0.28C0.291,-0.28 0.288,-0.277 0.288,-0.271C0.288,-0.266 0.293,-0.259 0.304,-0.248L0.326,-0.228C0.335,-0.218 0.344,-0.202 0.353,-0.181C0.362,-0.159 0.367,-0.117 0.367,-0.056ZM0.171,-0.178C0.177,-0.171 0.195,-0.162 0.225,-0.151C0.254,-0.14 0.273,-0.132 0.282,-0.125C0.289,-0.12 0.295,-0.115 0.301,-0.11C0.307,-0.105 0.313,-0.099 0.318,-0.094C0.333,-0.081 0.343,-0.074 0.35,-0.074C0.35,-0.149 0.327,-0.207 0.282,-0.248C0.277,-0.253 0.272,-0.256 0.269,-0.257C0.259,-0.257 0.242,-0.246 0.219,-0.223L0.171,-0.178ZM0.412,-0.088L0.416,-0.088C0.421,-0.088 0.424,-0.098 0.424,-0.117C0.424,-0.199 0.394,-0.262 0.334,-0.305L0.328,-0.305C0.321,-0.305 0.317,-0.303 0.315,-0.298L0.315,-0.297C0.315,-0.294 0.321,-0.287 0.333,-0.274C0.337,-0.27 0.341,-0.266 0.345,-0.262C0.349,-0.258 0.353,-0.254 0.356,-0.25C0.383,-0.218 0.398,-0.184 0.401,-0.149C0.402,-0.144 0.402,-0.139 0.402,-0.134L0.402,-0.118C0.403,-0.107 0.406,-0.097 0.412,-0.088ZM0.043,-0.336C0.043,-0.266 0.064,-0.216 0.107,-0.186C0.116,-0.179 0.124,-0.175 0.13,-0.175C0.14,-0.175 0.145,-0.179 0.145,-0.188C0.141,-0.191 0.137,-0.194 0.133,-0.197C0.129,-0.2 0.125,-0.204 0.12,-0.207C0.109,-0.216 0.096,-0.233 0.082,-0.257C0.069,-0.281 0.062,-0.3 0.061,-0.313L0.057,-0.373C0.056,-0.374 0.055,-0.375 0.054,-0.378C0.047,-0.378 0.043,-0.364 0.043,-0.336ZM0.072,-0.352C0.072,-0.296 0.091,-0.253 0.128,-0.224C0.149,-0.209 0.161,-0.201 0.164,-0.201C0.175,-0.201 0.18,-0.205 0.18,-0.213C0.179,-0.216 0.171,-0.225 0.156,-0.239C0.153,-0.242 0.149,-0.245 0.145,-0.248C0.14,-0.251 0.135,-0.256 0.13,-0.261C0.116,-0.274 0.105,-0.294 0.098,-0.321C0.096,-0.33 0.092,-0.353 0.086,-0.39L0.082,-0.39C0.075,-0.39 0.072,-0.377 0.072,-0.352ZM0.157,-0.396C0.157,-0.36 0.179,-0.321 0.222,-0.28C0.231,-0.271 0.239,-0.267 0.246,-0.267C0.254,-0.271 0.269,-0.283 0.291,-0.302C0.312,-0.321 0.325,-0.334 0.33,-0.343L0.33,-0.344L0.328,-0.346C0.291,-0.351 0.257,-0.36 0.228,-0.375C0.225,-0.376 0.214,-0.383 0.195,-0.398C0.182,-0.408 0.17,-0.413 0.161,-0.413L0.157,-0.411L0.157,-0.396ZM0.165,-0.44C0.165,-0.433 0.181,-0.421 0.213,-0.404C0.242,-0.387 0.261,-0.378 0.272,-0.375C0.303,-0.366 0.326,-0.361 0.341,-0.361C0.352,-0.361 0.357,-0.364 0.357,-0.37C0.356,-0.372 0.349,-0.375 0.338,-0.378C0.325,-0.381 0.311,-0.384 0.298,-0.389C0.284,-0.394 0.27,-0.4 0.255,-0.407C0.242,-0.414 0.23,-0.42 0.217,-0.427C0.204,-0.433 0.191,-0.439 0.178,-0.446C0.169,-0.446 0.165,-0.444 0.165,-0.44ZM0.196,-0.461C0.196,-0.458 0.198,-0.455 0.201,-0.452C0.258,-0.411 0.314,-0.39 0.367,-0.39C0.378,-0.39 0.384,-0.394 0.384,-0.402L0.382,-0.404C0.321,-0.411 0.273,-0.426 0.238,-0.45C0.223,-0.46 0.21,-0.465 0.199,-0.465L0.196,-0.461Z" style="fill-rule:nonzero;"/>
            </g>
            <g transform="matrix(50.2908,0,0,50.2908,198.995,91.9917)">
                <path d="M0.068,-0.043C0.051,-0.043 0.042,-0.038 0.042,-0.028C0.042,-0.021 0.047,-0.017 0.057,-0.014C0.067,-0.011 0.072,-0.007 0.072,-0.004C0.072,0.008 0.066,0.014 0.053,0.014C0.034,0.014 0.024,0.004 0.024,-0.016C0.024,-0.035 0.044,-0.071 0.084,-0.122C0.093,-0.129 0.104,-0.14 0.118,-0.153L0.118,-0.155C0.118,-0.158 0.11,-0.165 0.095,-0.176C0.067,-0.197 0.048,-0.225 0.038,-0.258C0.031,-0.281 0.028,-0.314 0.028,-0.359C0.028,-0.372 0.032,-0.383 0.04,-0.391C0.046,-0.397 0.056,-0.403 0.069,-0.409C0.123,-0.434 0.173,-0.465 0.22,-0.5C0.244,-0.518 0.258,-0.527 0.262,-0.527C0.267,-0.527 0.28,-0.52 0.299,-0.506C0.319,-0.492 0.331,-0.485 0.336,-0.484C0.364,-0.477 0.388,-0.473 0.407,-0.473C0.433,-0.473 0.446,-0.478 0.446,-0.488C0.446,-0.499 0.441,-0.505 0.431,-0.506C0.436,-0.505 0.436,-0.505 0.431,-0.505L0.401,-0.505C0.4,-0.509 0.399,-0.512 0.398,-0.515C0.398,-0.53 0.407,-0.538 0.426,-0.538C0.435,-0.538 0.443,-0.536 0.451,-0.531C0.459,-0.526 0.463,-0.519 0.463,-0.511C0.463,-0.508 0.463,-0.505 0.463,-0.502C0.462,-0.498 0.462,-0.494 0.461,-0.489C0.46,-0.484 0.46,-0.479 0.46,-0.475C0.459,-0.471 0.459,-0.468 0.459,-0.466C0.459,-0.463 0.447,-0.446 0.424,-0.417C0.401,-0.388 0.39,-0.372 0.39,-0.369C0.39,-0.364 0.395,-0.358 0.405,-0.352C0.425,-0.34 0.44,-0.325 0.451,-0.306C0.474,-0.265 0.485,-0.218 0.485,-0.165C0.485,-0.162 0.486,-0.157 0.487,-0.152C0.488,-0.146 0.488,-0.141 0.488,-0.138C0.488,-0.115 0.449,-0.083 0.37,-0.04C0.295,0.001 0.245,0.022 0.221,0.022C0.219,0.022 0.201,0.011 0.166,-0.01C0.133,-0.032 0.1,-0.043 0.068,-0.043ZM0.057,-0.059C0.076,-0.056 0.092,-0.053 0.104,-0.051C0.115,-0.048 0.123,-0.046 0.128,-0.045C0.145,-0.04 0.166,-0.028 0.193,-0.009C0.208,0 0.218,0.005 0.224,0.005C0.232,0.005 0.236,0.003 0.236,-0.001C0.236,-0.01 0.218,-0.024 0.183,-0.043C0.148,-0.062 0.124,-0.072 0.113,-0.072L0.064,-0.072C0.059,-0.072 0.057,-0.068 0.057,-0.059ZM0.176,-0.063C0.181,-0.058 0.192,-0.05 0.209,-0.041C0.225,-0.032 0.236,-0.025 0.242,-0.018C0.248,-0.011 0.253,-0.007 0.256,-0.007L0.262,-0.007C0.274,-0.007 0.28,-0.011 0.28,-0.018C0.28,-0.022 0.274,-0.029 0.263,-0.038C0.203,-0.084 0.15,-0.107 0.103,-0.107C0.092,-0.107 0.086,-0.107 0.085,-0.106C0.08,-0.104 0.078,-0.099 0.078,-0.091C0.081,-0.086 0.089,-0.083 0.103,-0.081L0.132,-0.078C0.137,-0.077 0.144,-0.075 0.151,-0.072C0.158,-0.069 0.167,-0.066 0.176,-0.063ZM0.367,-0.056C0.381,-0.056 0.388,-0.067 0.388,-0.09C0.388,-0.163 0.362,-0.224 0.309,-0.273C0.304,-0.278 0.301,-0.28 0.298,-0.28C0.291,-0.28 0.288,-0.277 0.288,-0.271C0.288,-0.266 0.293,-0.259 0.304,-0.248L0.326,-0.228C0.335,-0.218 0.344,-0.202 0.353,-0.181C0.362,-0.159 0.367,-0.117 0.367,-0.056ZM0.171,-0.178C0.177,-0.171 0.195,-0.162 0.225,-0.151C0.254,-0.14 0.273,-0.132 0.282,-0.125C0.289,-0.12 0.295,-0.115 0.301,-0.11C0.307,-0.105 0.313,-0.099 0.318,-0.094C0.333,-0.081 0.343,-0.074 0.35,-0.074C0.35,-0.149 0.327,-0.207 0.282,-0.248C0.277,-0.253 0.272,-0.256 0.269,-0.257C0.259,-0.257 0.242,-0.246 0.219,-0.223L0.171,-0.178ZM0.412,-0.088L0.416,-0.088C0.421,-0.088 0.424,-0.098 0.424,-0.117C0.424,-0.199 0.394,-0.262 0.334,-0.305L0.328,-0.305C0.321,-0.305 0.317,-0.303 0.315,-0.298L0.315,-0.297C0.315,-0.294 0.321,-0.287 0.333,-0.274C0.337,-0.27 0.341,-0.266 0.345,-0.262C0.349,-0.258 0.353,-0.254 0.356,-0.25C0.383,-0.218 0.398,-0.184 0.401,-0.149C0.402,-0.144 0.402,-0.139 0.402,-0.134L0.402,-0.118C0.403,-0.107 0.406,-0.097 0.412,-0.088ZM0.043,-0.336C0.043,-0.266 0.064,-0.216 0.107,-0.186C0.116,-0.179 0.124,-0.175 0.13,-0.175C0.14,-0.175 0.145,-0.179 0.145,-0.188C0.141,-0.191 0.137,-0.194 0.133,-0.197C0.129,-0.2 0.125,-0.204 0.12,-0.207C0.109,-0.216 0.096,-0.233 0.082,-0.257C0.069,-0.281 0.062,-0.3 0.061,-0.313L0.057,-0.373C0.056,-0.374 0.055,-0.375 0.054,-0.378C0.047,-0.378 0.043,-0.364 0.043,-0.336ZM0.072,-0.352C0.072,-0.296 0.091,-0.253 0.128,-0.224C0.149,-0.209 0.161,-0.201 0.164,-0.201C0.175,-0.201 0.18,-0.205 0.18,-0.213C0.179,-0.216 0.171,-0.225 0.156,-0.239C0.153,-0.242 0.149,-0.245 0.145,-0.248C0.14,-0.251 0.135,-0.256 0.13,-0.261C0.116,-0.274 0.105,-0.294 0.098,-0.321C0.096,-0.33 0.092,-0.353 0.086,-0.39L0.082,-0.39C0.075,-0.39 0.072,-0.377 0.072,-0.352ZM0.157,-0.396C0.157,-0.36 0.179,-0.321 0.222,-0.28C0.231,-0.271 0.239,-0.267 0.246,-0.267C0.254,-0.271 0.269,-0.283 0.291,-0.302C0.312,-0.321 0.325,-0.334 0.33,-0.343L0.33,-0.344L0.328,-0.346C0.291,-0.351 0.257,-0.36 0.228,-0.375C0.225,-0.376 0.214,-0.383 0.195,-0.398C0.182,-0.408 0.17,-0.413 0.161,-0.413L0.157,-0.411L0.157,-0.396ZM0.165,-0.44C0.165,-0.433 0.181,-0.421 0.213,-0.404C0.242,-0.387 0.261,-0.378 0.272,-0.375C0.303,-0.366 0.326,-0.361 0.341,-0.361C0.352,-0.361 0.357,-0.364 0.357,-0.37C0.356,-0.372 0.349,-0.375 0.338,-0.378C0.325,-0.381 0.311,-0.384 0.298,-0.389C0.284,-0.394 0.27,-0.4 0.255,-0.407C0.242,-0.414 0.23,-0.42 0.217,-0.427C0.204,-0.433 0.191,-0.439 0.178,-0.446C0.169,-0.446 0.165,-0.444 0.165,-0.44ZM0.196,-0.461C0.196,-0.458 0.198,-0.455 0.201,-0.452C0.258,-0.411 0.314,-0.39 0.367,-0.39C0.378,-0.39 0.384,-0.394 0.384,-0.402L0.382,-0.404C0.321,-0.411 0.273,-0.426 0.238,-0.45C0.223,-0.46 0.21,-0.465 0.199,-0.465L0.196,-0.461Z" style="fill-rule:nonzero;"/>
            </g>
            <g transform="matrix(50.2908,0,0,50.2908,224.794,91.9917)">
                <path d="M0.024,-0.437L0.026,-0.442C0.075,-0.442 0.142,-0.46 0.227,-0.496C0.228,-0.497 0.242,-0.504 0.269,-0.519C0.288,-0.53 0.301,-0.536 0.308,-0.536C0.318,-0.536 0.334,-0.519 0.355,-0.486C0.364,-0.471 0.372,-0.459 0.379,-0.448C0.385,-0.436 0.389,-0.427 0.392,-0.42C0.399,-0.402 0.402,-0.382 0.402,-0.359L0.4,-0.326C0.385,-0.303 0.338,-0.272 0.259,-0.231C0.252,-0.228 0.243,-0.223 0.234,-0.218C0.224,-0.212 0.213,-0.205 0.2,-0.198C0.196,-0.195 0.194,-0.191 0.194,-0.186C0.194,-0.167 0.212,-0.151 0.248,-0.139C0.276,-0.129 0.302,-0.124 0.326,-0.124C0.329,-0.124 0.333,-0.124 0.336,-0.125L0.346,-0.125C0.351,-0.13 0.359,-0.141 0.368,-0.158C0.373,-0.168 0.377,-0.176 0.38,-0.182C0.383,-0.188 0.386,-0.192 0.387,-0.194C0.393,-0.194 0.396,-0.191 0.396,-0.184C0.396,-0.172 0.378,-0.141 0.341,-0.09C0.323,-0.065 0.308,-0.044 0.296,-0.029C0.283,-0.014 0.274,-0.003 0.267,0.002C0.266,0.002 0.264,0.002 0.261,0.003C0.258,0.004 0.255,0.004 0.253,0.004C0.215,0.004 0.174,-0.007 0.131,-0.03C0.094,-0.049 0.071,-0.066 0.06,-0.082C0.044,-0.106 0.034,-0.145 0.031,-0.199C0.03,-0.202 0.03,-0.214 0.03,-0.235L0.03,-0.322C0.03,-0.354 0.028,-0.389 0.024,-0.426L0.024,-0.437ZM0.041,-0.398C0.041,-0.387 0.041,-0.373 0.042,-0.356L0.045,-0.237C0.045,-0.22 0.045,-0.206 0.045,-0.195C0.045,-0.115 0.077,-0.063 0.142,-0.038C0.189,-0.019 0.228,-0.01 0.258,-0.01C0.264,-0.01 0.267,-0.013 0.267,-0.019L0.265,-0.023C0.256,-0.025 0.246,-0.027 0.237,-0.029C0.227,-0.031 0.217,-0.033 0.208,-0.036C0.188,-0.041 0.17,-0.047 0.154,-0.056L0.118,-0.075C0.091,-0.09 0.076,-0.126 0.073,-0.183C0.073,-0.222 0.072,-0.283 0.07,-0.364C0.067,-0.407 0.062,-0.428 0.054,-0.428C0.045,-0.428 0.041,-0.418 0.041,-0.398ZM0.086,-0.166C0.086,-0.167 0.089,-0.157 0.094,-0.137C0.099,-0.119 0.102,-0.109 0.103,-0.108C0.112,-0.091 0.138,-0.075 0.183,-0.059C0.223,-0.044 0.255,-0.037 0.279,-0.037C0.289,-0.037 0.294,-0.041 0.294,-0.05L0.292,-0.054C0.285,-0.053 0.249,-0.062 0.184,-0.081C0.167,-0.086 0.153,-0.097 0.14,-0.112C0.123,-0.131 0.114,-0.155 0.111,-0.183L0.111,-0.262C0.111,-0.31 0.111,-0.348 0.111,-0.376C0.11,-0.403 0.11,-0.421 0.109,-0.428L0.104,-0.439C0.099,-0.438 0.094,-0.438 0.09,-0.437C0.085,-0.436 0.082,-0.433 0.082,-0.428L0.082,-0.302C0.082,-0.294 0.082,-0.284 0.083,-0.273C0.084,-0.262 0.084,-0.252 0.084,-0.244L0.084,-0.224C0.085,-0.223 0.086,-0.203 0.086,-0.166ZM0.196,-0.218L0.198,-0.216L0.199,-0.216C0.21,-0.216 0.224,-0.223 0.239,-0.236C0.255,-0.249 0.263,-0.261 0.263,-0.272C0.263,-0.293 0.26,-0.314 0.254,-0.333C0.248,-0.352 0.24,-0.372 0.229,-0.393C0.214,-0.423 0.201,-0.438 0.192,-0.438C0.191,-0.435 0.191,-0.432 0.191,-0.429C0.19,-0.426 0.19,-0.424 0.19,-0.423L0.19,-0.396C0.19,-0.398 0.19,-0.398 0.191,-0.396C0.191,-0.394 0.191,-0.39 0.192,-0.384C0.191,-0.387 0.191,-0.386 0.191,-0.379L0.191,-0.343C0.191,-0.315 0.192,-0.291 0.193,-0.27C0.194,-0.249 0.195,-0.232 0.196,-0.218ZM0.279,-0.266C0.282,-0.265 0.284,-0.264 0.285,-0.264C0.296,-0.264 0.302,-0.271 0.302,-0.286C0.302,-0.347 0.276,-0.408 0.223,-0.469C0.221,-0.471 0.218,-0.472 0.215,-0.472C0.208,-0.472 0.205,-0.469 0.205,-0.464C0.205,-0.459 0.215,-0.442 0.234,-0.411C0.25,-0.386 0.263,-0.354 0.273,-0.315C0.274,-0.302 0.276,-0.286 0.279,-0.266ZM0.265,-0.432C0.273,-0.423 0.284,-0.399 0.297,-0.358C0.311,-0.317 0.32,-0.294 0.325,-0.289C0.335,-0.289 0.34,-0.298 0.34,-0.316C0.34,-0.339 0.33,-0.37 0.311,-0.409C0.293,-0.444 0.275,-0.471 0.257,-0.488L0.243,-0.488C0.241,-0.487 0.24,-0.485 0.24,-0.483C0.24,-0.476 0.244,-0.469 0.252,-0.461L0.265,-0.432Z" style="fill-rule:nonzero;"/>
            </g>
            <g transform="matrix(50.2908,0,0,50.2908,246.268,91.9917)">
                <path d="M0.564,-0.405C0.535,-0.405 0.521,-0.378 0.521,-0.323C0.521,-0.315 0.521,-0.305 0.522,-0.293C0.522,-0.281 0.522,-0.267 0.523,-0.252C0.525,-0.221 0.526,-0.197 0.526,-0.182C0.526,-0.149 0.543,-0.133 0.578,-0.133C0.579,-0.134 0.582,-0.14 0.587,-0.149C0.592,-0.156 0.597,-0.16 0.6,-0.16C0.605,-0.16 0.607,-0.157 0.607,-0.15C0.607,-0.141 0.595,-0.115 0.571,-0.071C0.548,-0.028 0.533,-0.004 0.526,-0L0.515,-0C0.49,-0 0.458,-0.012 0.421,-0.035C0.382,-0.06 0.361,-0.084 0.357,-0.108C0.354,-0.121 0.353,-0.15 0.353,-0.194L0.353,-0.222C0.353,-0.233 0.353,-0.246 0.354,-0.261C0.355,-0.276 0.355,-0.29 0.356,-0.301C0.356,-0.312 0.356,-0.321 0.356,-0.328C0.356,-0.341 0.354,-0.352 0.351,-0.362C0.348,-0.372 0.339,-0.383 0.323,-0.394C0.308,-0.406 0.295,-0.412 0.284,-0.412C0.258,-0.412 0.245,-0.39 0.245,-0.346L0.245,-0.208C0.245,-0.189 0.248,-0.172 0.255,-0.158C0.264,-0.14 0.276,-0.131 0.293,-0.131C0.296,-0.131 0.301,-0.136 0.306,-0.145C0.311,-0.155 0.315,-0.16 0.319,-0.16C0.324,-0.16 0.326,-0.157 0.326,-0.152C0.326,-0.146 0.315,-0.123 0.294,-0.084C0.285,-0.067 0.277,-0.052 0.27,-0.041C0.263,-0.03 0.258,-0.021 0.255,-0.016C0.248,-0.007 0.24,-0.002 0.231,-0.002C0.196,-0.002 0.162,-0.015 0.131,-0.042C0.099,-0.069 0.083,-0.097 0.083,-0.127L0.083,-0.331C0.083,-0.372 0.074,-0.399 0.055,-0.411C0.052,-0.412 0.049,-0.413 0.046,-0.414C0.043,-0.415 0.041,-0.416 0.038,-0.417C0.031,-0.42 0.027,-0.424 0.027,-0.427C0.027,-0.429 0.03,-0.433 0.035,-0.44C0.043,-0.447 0.053,-0.456 0.064,-0.467C0.075,-0.478 0.088,-0.492 0.103,-0.507C0.105,-0.51 0.108,-0.514 0.111,-0.518C0.114,-0.521 0.117,-0.525 0.121,-0.53C0.124,-0.531 0.127,-0.532 0.132,-0.532C0.143,-0.532 0.158,-0.526 0.177,-0.515C0.209,-0.494 0.235,-0.462 0.256,-0.418C0.269,-0.429 0.286,-0.443 0.306,-0.46C0.325,-0.477 0.348,-0.497 0.374,-0.52C0.382,-0.528 0.391,-0.532 0.4,-0.532C0.415,-0.532 0.437,-0.521 0.466,-0.5C0.495,-0.479 0.511,-0.461 0.515,-0.445C0.515,-0.436 0.517,-0.426 0.522,-0.414L0.527,-0.414C0.534,-0.414 0.557,-0.433 0.598,-0.472C0.639,-0.511 0.666,-0.53 0.68,-0.53C0.716,-0.53 0.753,-0.504 0.79,-0.453C0.791,-0.444 0.793,-0.432 0.794,-0.419C0.795,-0.405 0.797,-0.389 0.798,-0.37C0.798,-0.366 0.798,-0.361 0.798,-0.355L0.797,-0.315C0.796,-0.308 0.796,-0.303 0.796,-0.299C0.796,-0.286 0.796,-0.27 0.797,-0.252C0.797,-0.233 0.797,-0.212 0.798,-0.189C0.798,-0.178 0.803,-0.165 0.812,-0.152C0.822,-0.139 0.832,-0.133 0.843,-0.133C0.847,-0.133 0.852,-0.138 0.857,-0.147C0.862,-0.156 0.867,-0.162 0.87,-0.163C0.873,-0.163 0.876,-0.16 0.877,-0.154C0.872,-0.137 0.86,-0.109 0.843,-0.072C0.822,-0.028 0.808,-0.004 0.801,0.001C0.797,0.003 0.792,0.004 0.787,0.004C0.762,0.004 0.742,-0.002 0.729,-0.013C0.724,-0.018 0.711,-0.027 0.691,-0.038C0.675,-0.048 0.663,-0.059 0.654,-0.072C0.639,-0.091 0.632,-0.121 0.632,-0.16L0.632,-0.324C0.632,-0.349 0.623,-0.369 0.604,-0.386C0.591,-0.399 0.577,-0.405 0.564,-0.405ZM0.513,-0.011L0.514,-0.01C0.516,-0.012 0.518,-0.015 0.52,-0.02C0.516,-0.028 0.502,-0.037 0.479,-0.046C0.452,-0.057 0.434,-0.068 0.423,-0.079C0.404,-0.098 0.395,-0.124 0.395,-0.159L0.395,-0.264C0.395,-0.265 0.395,-0.268 0.394,-0.271C0.393,-0.274 0.393,-0.277 0.393,-0.279C0.393,-0.28 0.393,-0.283 0.394,-0.286C0.395,-0.289 0.395,-0.292 0.395,-0.293L0.395,-0.36L0.382,-0.392C0.38,-0.396 0.377,-0.4 0.372,-0.405C0.367,-0.41 0.362,-0.414 0.357,-0.418C0.351,-0.421 0.345,-0.424 0.339,-0.427C0.332,-0.429 0.327,-0.43 0.322,-0.43L0.32,-0.425C0.355,-0.392 0.372,-0.366 0.372,-0.347L0.372,-0.133C0.372,-0.099 0.388,-0.072 0.421,-0.051C0.438,-0.039 0.468,-0.026 0.513,-0.011ZM0.756,-0.021C0.759,-0.017 0.769,-0.015 0.786,-0.015C0.787,-0.015 0.789,-0.016 0.79,-0.018L0.79,-0.019C0.779,-0.029 0.761,-0.039 0.734,-0.048C0.702,-0.075 0.683,-0.094 0.678,-0.105C0.673,-0.115 0.671,-0.142 0.671,-0.187L0.671,-0.219C0.671,-0.231 0.671,-0.245 0.67,-0.262C0.669,-0.279 0.669,-0.293 0.669,-0.306L0.669,-0.337C0.669,-0.342 0.668,-0.351 0.665,-0.362C0.662,-0.373 0.661,-0.381 0.661,-0.387C0.657,-0.397 0.647,-0.407 0.632,-0.416C0.617,-0.425 0.604,-0.43 0.593,-0.43C0.59,-0.43 0.589,-0.429 0.588,-0.427L0.588,-0.426C0.591,-0.423 0.594,-0.42 0.598,-0.417C0.602,-0.414 0.607,-0.41 0.613,-0.407C0.616,-0.407 0.618,-0.406 0.621,-0.403C0.63,-0.399 0.639,-0.385 0.648,-0.362C0.648,-0.358 0.649,-0.352 0.651,-0.344C0.652,-0.336 0.653,-0.33 0.653,-0.326L0.65,-0.318L0.65,-0.316C0.65,-0.317 0.652,-0.304 0.657,-0.277C0.652,-0.272 0.649,-0.26 0.649,-0.243L0.649,-0.231C0.649,-0.226 0.649,-0.219 0.65,-0.212L0.65,-0.18C0.65,-0.139 0.651,-0.114 0.654,-0.106C0.659,-0.085 0.675,-0.066 0.702,-0.049C0.709,-0.046 0.716,-0.043 0.726,-0.038C0.735,-0.033 0.745,-0.028 0.756,-0.021ZM0.097,-0.244L0.097,-0.166C0.097,-0.093 0.124,-0.048 0.179,-0.029C0.186,-0.026 0.197,-0.022 0.212,-0.017L0.233,-0.017L0.235,-0.019L0.235,-0.022C0.233,-0.026 0.222,-0.032 0.201,-0.041C0.177,-0.051 0.159,-0.062 0.147,-0.074C0.128,-0.093 0.119,-0.117 0.119,-0.146C0.119,-0.147 0.118,-0.15 0.116,-0.154L0.116,-0.328C0.116,-0.331 0.117,-0.335 0.119,-0.342C0.12,-0.348 0.121,-0.353 0.121,-0.356C0.121,-0.373 0.118,-0.389 0.112,-0.402C0.103,-0.419 0.091,-0.428 0.076,-0.428C0.074,-0.427 0.073,-0.425 0.073,-0.424C0.073,-0.421 0.075,-0.418 0.08,-0.413C0.084,-0.408 0.086,-0.404 0.087,-0.403C0.094,-0.388 0.098,-0.363 0.098,-0.326C0.098,-0.321 0.099,-0.314 0.1,-0.305C0.101,-0.296 0.102,-0.289 0.102,-0.284L0.102,-0.268C0.099,-0.259 0.097,-0.251 0.097,-0.244ZM0.247,-0.041C0.253,-0.041 0.256,-0.046 0.256,-0.056C0.21,-0.077 0.182,-0.096 0.171,-0.114C0.162,-0.129 0.158,-0.162 0.158,-0.215L0.158,-0.242C0.158,-0.252 0.158,-0.264 0.159,-0.277C0.16,-0.291 0.16,-0.303 0.16,-0.314L0.16,-0.34C0.16,-0.415 0.142,-0.453 0.107,-0.453C0.102,-0.453 0.099,-0.451 0.096,-0.447C0.123,-0.426 0.137,-0.397 0.137,-0.362L0.137,-0.242C0.137,-0.233 0.137,-0.222 0.136,-0.21C0.135,-0.195 0.135,-0.183 0.135,-0.174L0.135,-0.152C0.134,-0.112 0.157,-0.081 0.202,-0.059C0.227,-0.047 0.242,-0.041 0.247,-0.041ZM0.409,-0.194C0.409,-0.132 0.422,-0.094 0.447,-0.081C0.453,-0.081 0.458,-0.08 0.461,-0.078C0.464,-0.075 0.47,-0.069 0.479,-0.062C0.48,-0.061 0.488,-0.057 0.503,-0.05C0.518,-0.044 0.526,-0.041 0.528,-0.041C0.535,-0.041 0.538,-0.045 0.538,-0.052C0.538,-0.054 0.529,-0.06 0.511,-0.069L0.478,-0.087C0.46,-0.099 0.448,-0.115 0.442,-0.134C0.441,-0.137 0.44,-0.144 0.439,-0.154C0.438,-0.164 0.436,-0.178 0.434,-0.195C0.437,-0.203 0.438,-0.253 0.438,-0.345C0.438,-0.376 0.43,-0.403 0.414,-0.426C0.396,-0.451 0.372,-0.464 0.342,-0.464C0.339,-0.464 0.338,-0.462 0.338,-0.459C0.339,-0.455 0.343,-0.451 0.35,-0.446C0.356,-0.44 0.361,-0.438 0.366,-0.437C0.388,-0.416 0.401,-0.401 0.405,-0.392C0.41,-0.38 0.413,-0.361 0.413,-0.335C0.413,-0.33 0.413,-0.324 0.413,-0.317L0.41,-0.272C0.409,-0.265 0.409,-0.259 0.409,-0.254C0.409,-0.252 0.41,-0.249 0.411,-0.245C0.412,-0.241 0.412,-0.238 0.412,-0.236C0.412,-0.233 0.411,-0.23 0.409,-0.225L0.409,-0.194ZM0.795,-0.041C0.797,-0.043 0.798,-0.046 0.798,-0.05C0.798,-0.056 0.789,-0.064 0.771,-0.074C0.752,-0.085 0.741,-0.091 0.738,-0.094C0.735,-0.098 0.732,-0.102 0.729,-0.107C0.725,-0.111 0.722,-0.115 0.719,-0.12C0.714,-0.127 0.711,-0.133 0.711,-0.137L0.711,-0.26C0.709,-0.263 0.708,-0.267 0.708,-0.274C0.708,-0.279 0.708,-0.285 0.709,-0.292L0.712,-0.342C0.712,-0.349 0.712,-0.355 0.712,-0.36C0.712,-0.387 0.703,-0.41 0.684,-0.431C0.665,-0.453 0.642,-0.464 0.617,-0.464C0.613,-0.461 0.611,-0.457 0.611,-0.452C0.611,-0.451 0.621,-0.443 0.64,-0.428C0.661,-0.413 0.674,-0.403 0.678,-0.397C0.686,-0.386 0.69,-0.372 0.69,-0.356L0.69,-0.332C0.69,-0.323 0.69,-0.311 0.689,-0.298C0.688,-0.285 0.688,-0.274 0.688,-0.265L0.688,-0.241L0.69,-0.202C0.69,-0.162 0.691,-0.136 0.694,-0.125C0.701,-0.097 0.717,-0.078 0.74,-0.067L0.795,-0.041ZM0.808,-0.052L0.806,-0.05L0.808,-0.048L0.81,-0.05L0.808,-0.052Z" style="fill-rule:nonzero;"/>
            </g>
            <g transform="matrix(50.2908,0,0,50.2908,291.681,91.9917)">
                <path d="M0.049,-0.464L0.049,-0.638C0.049,-0.648 0.045,-0.66 0.038,-0.673C0.031,-0.686 0.028,-0.693 0.028,-0.696C0.028,-0.699 0.029,-0.701 0.032,-0.703C0.035,-0.702 0.04,-0.702 0.047,-0.702L0.071,-0.702C0.167,-0.702 0.223,-0.708 0.238,-0.719C0.241,-0.72 0.245,-0.72 0.249,-0.72C0.253,-0.72 0.255,-0.718 0.255,-0.713C0.255,-0.708 0.253,-0.705 0.25,-0.705C0.235,-0.698 0.226,-0.691 0.222,-0.682C0.217,-0.673 0.215,-0.659 0.215,-0.642C0.215,-0.638 0.215,-0.632 0.215,-0.625L0.214,-0.58C0.213,-0.573 0.213,-0.567 0.213,-0.563L0.213,-0.536C0.213,-0.525 0.213,-0.513 0.214,-0.499L0.214,-0.434L0.219,-0.432C0.226,-0.439 0.234,-0.446 0.245,-0.455C0.255,-0.464 0.267,-0.474 0.282,-0.485C0.311,-0.508 0.332,-0.526 0.345,-0.539L0.348,-0.539C0.367,-0.539 0.394,-0.514 0.429,-0.463C0.444,-0.441 0.457,-0.422 0.466,-0.405C0.475,-0.388 0.483,-0.374 0.488,-0.361C0.493,-0.347 0.497,-0.336 0.499,-0.327C0.501,-0.317 0.502,-0.308 0.502,-0.301C0.502,-0.298 0.501,-0.294 0.5,-0.289C0.499,-0.283 0.498,-0.278 0.498,-0.275C0.498,-0.272 0.499,-0.269 0.5,-0.264C0.501,-0.259 0.502,-0.255 0.502,-0.252C0.502,-0.229 0.45,-0.169 0.347,-0.071C0.334,-0.06 0.32,-0.049 0.306,-0.038C0.291,-0.026 0.276,-0.013 0.261,-0L0.247,-0C0.226,-0 0.2,-0.006 0.17,-0.017C0.143,-0.028 0.12,-0.041 0.103,-0.057C0.097,-0.062 0.086,-0.073 0.07,-0.091C0.054,-0.108 0.046,-0.177 0.046,-0.298L0.046,-0.343C0.046,-0.359 0.046,-0.377 0.047,-0.396C0.048,-0.415 0.048,-0.431 0.049,-0.442C0.049,-0.453 0.049,-0.461 0.049,-0.464ZM0.061,-0.2C0.061,-0.141 0.075,-0.099 0.102,-0.074C0.121,-0.057 0.162,-0.038 0.225,-0.015L0.261,-0.016C0.262,-0.016 0.265,-0.019 0.271,-0.025L0.267,-0.029C0.205,-0.044 0.162,-0.061 0.138,-0.078C0.114,-0.096 0.099,-0.122 0.093,-0.155C0.092,-0.164 0.09,-0.18 0.09,-0.202C0.088,-0.223 0.088,-0.251 0.088,-0.285L0.088,-0.678C0.088,-0.683 0.083,-0.686 0.072,-0.686C0.065,-0.686 0.061,-0.683 0.061,-0.676C0.064,-0.67 0.065,-0.639 0.065,-0.582L0.065,-0.485C0.065,-0.474 0.065,-0.459 0.065,-0.442L0.062,-0.321C0.061,-0.304 0.061,-0.289 0.061,-0.278L0.061,-0.2ZM0.285,-0.041C0.292,-0.041 0.297,-0.045 0.3,-0.052L0.3,-0.054C0.299,-0.056 0.294,-0.06 0.283,-0.065C0.274,-0.068 0.262,-0.071 0.249,-0.076C0.235,-0.081 0.219,-0.086 0.201,-0.093C0.173,-0.106 0.153,-0.125 0.142,-0.15C0.134,-0.169 0.13,-0.196 0.13,-0.233L0.128,-0.678C0.127,-0.679 0.127,-0.681 0.127,-0.682C0.126,-0.683 0.125,-0.685 0.124,-0.686L0.109,-0.686C0.108,-0.681 0.106,-0.672 0.103,-0.661L0.103,-0.585C0.103,-0.555 0.103,-0.52 0.102,-0.479C0.101,-0.438 0.101,-0.403 0.101,-0.373L0.101,-0.297C0.101,-0.27 0.101,-0.249 0.102,-0.232C0.102,-0.215 0.102,-0.202 0.103,-0.195C0.107,-0.151 0.117,-0.121 0.133,-0.104C0.144,-0.093 0.167,-0.08 0.202,-0.066C0.241,-0.049 0.269,-0.041 0.285,-0.041ZM0.367,-0.125L0.371,-0.127L0.371,-0.15C0.371,-0.181 0.365,-0.216 0.353,-0.253C0.34,-0.294 0.323,-0.324 0.304,-0.343L0.273,-0.374C0.249,-0.398 0.234,-0.41 0.227,-0.41C0.218,-0.41 0.213,-0.4 0.213,-0.381L0.213,-0.324C0.213,-0.318 0.213,-0.311 0.214,-0.304C0.215,-0.286 0.216,-0.275 0.217,-0.27C0.216,-0.261 0.216,-0.248 0.217,-0.231C0.22,-0.188 0.247,-0.157 0.3,-0.14C0.332,-0.129 0.354,-0.124 0.367,-0.125ZM0.24,-0.425C0.242,-0.423 0.254,-0.413 0.277,-0.395C0.312,-0.368 0.34,-0.322 0.363,-0.258C0.374,-0.228 0.381,-0.197 0.384,-0.166C0.385,-0.148 0.387,-0.139 0.392,-0.139C0.405,-0.139 0.411,-0.149 0.411,-0.17C0.411,-0.189 0.402,-0.227 0.383,-0.285C0.376,-0.299 0.365,-0.32 0.35,-0.348C0.311,-0.407 0.277,-0.437 0.25,-0.437C0.247,-0.436 0.243,-0.432 0.24,-0.426L0.24,-0.425ZM0.271,-0.454C0.275,-0.447 0.284,-0.437 0.298,-0.426C0.305,-0.421 0.311,-0.416 0.316,-0.413C0.32,-0.409 0.323,-0.406 0.325,-0.403C0.37,-0.348 0.401,-0.287 0.417,-0.22C0.418,-0.217 0.418,-0.213 0.419,-0.21C0.42,-0.206 0.421,-0.202 0.422,-0.199C0.425,-0.189 0.429,-0.184 0.433,-0.183C0.435,-0.184 0.439,-0.187 0.444,-0.191L0.444,-0.204C0.444,-0.227 0.435,-0.262 0.417,-0.307C0.4,-0.351 0.384,-0.382 0.367,-0.401C0.357,-0.412 0.346,-0.424 0.334,-0.437C0.313,-0.459 0.298,-0.47 0.291,-0.47C0.278,-0.47 0.271,-0.465 0.271,-0.454Z" style="fill-rule:nonzero;"/>
            </g>
            <g transform="matrix(50.2908,0,0,50.2908,317.832,91.9917)">
                <path d="M0.046,-0.635C0.044,-0.64 0.042,-0.645 0.039,-0.652C0.036,-0.658 0.032,-0.665 0.029,-0.674L0.029,-0.675C0.029,-0.679 0.038,-0.682 0.056,-0.683C0.074,-0.684 0.099,-0.685 0.131,-0.685C0.14,-0.685 0.155,-0.687 0.174,-0.691C0.193,-0.695 0.207,-0.697 0.217,-0.697C0.221,-0.697 0.223,-0.696 0.223,-0.693C0.223,-0.692 0.219,-0.686 0.212,-0.675C0.205,-0.664 0.202,-0.654 0.202,-0.645L0.202,-0.597C0.201,-0.586 0.201,-0.576 0.201,-0.568L0.201,-0.548C0.201,-0.521 0.202,-0.479 0.204,-0.423C0.206,-0.368 0.207,-0.326 0.207,-0.299C0.207,-0.272 0.208,-0.247 0.209,-0.226C0.21,-0.205 0.211,-0.186 0.214,-0.171C0.218,-0.146 0.231,-0.133 0.252,-0.133C0.258,-0.133 0.264,-0.139 0.27,-0.151C0.275,-0.162 0.279,-0.169 0.281,-0.171L0.285,-0.169L0.285,-0.151C0.285,-0.14 0.28,-0.128 0.271,-0.113L0.247,-0.079L0.223,-0.033C0.209,-0.01 0.198,0.002 0.191,0.002L0.18,0.002C0.157,0.002 0.134,-0.004 0.111,-0.017C0.099,-0.024 0.085,-0.037 0.07,-0.057C0.054,-0.078 0.046,-0.12 0.046,-0.183L0.046,-0.635ZM0.059,-0.148C0.059,-0.081 0.086,-0.038 0.139,-0.019C0.16,-0.012 0.174,-0.008 0.183,-0.008C0.189,-0.008 0.192,-0.011 0.192,-0.016C0.192,-0.019 0.18,-0.027 0.156,-0.038C0.131,-0.05 0.113,-0.065 0.104,-0.082C0.092,-0.105 0.085,-0.141 0.083,-0.189L0.083,-0.302C0.083,-0.331 0.082,-0.375 0.08,-0.434C0.078,-0.493 0.077,-0.537 0.077,-0.567C0.077,-0.573 0.077,-0.582 0.078,-0.595C0.079,-0.608 0.079,-0.617 0.079,-0.623L0.079,-0.662C0.077,-0.665 0.073,-0.666 0.068,-0.666C0.061,-0.666 0.056,-0.665 0.054,-0.662L0.054,-0.63C0.054,-0.621 0.054,-0.611 0.055,-0.6C0.056,-0.571 0.057,-0.554 0.058,-0.547C0.059,-0.526 0.059,-0.483 0.059,-0.417L0.059,-0.148ZM0.096,-0.454C0.095,-0.445 0.095,-0.427 0.095,-0.401C0.094,-0.375 0.094,-0.34 0.094,-0.297C0.094,-0.169 0.101,-0.098 0.114,-0.085C0.144,-0.054 0.172,-0.039 0.197,-0.039C0.204,-0.039 0.21,-0.043 0.216,-0.052L0.165,-0.084C0.147,-0.097 0.135,-0.113 0.13,-0.13C0.124,-0.15 0.121,-0.27 0.121,-0.489C0.121,-0.492 0.121,-0.498 0.12,-0.506C0.119,-0.513 0.118,-0.519 0.118,-0.523L0.118,-0.539L0.121,-0.543L0.121,-0.544C0.121,-0.546 0.121,-0.549 0.12,-0.552C0.119,-0.555 0.118,-0.557 0.118,-0.559C0.118,-0.561 0.119,-0.564 0.12,-0.569C0.121,-0.573 0.121,-0.576 0.121,-0.578C0.121,-0.625 0.118,-0.656 0.112,-0.67L0.107,-0.67C0.098,-0.67 0.093,-0.651 0.093,-0.613C0.093,-0.608 0.093,-0.6 0.095,-0.59C0.095,-0.58 0.096,-0.573 0.096,-0.568C0.096,-0.563 0.096,-0.556 0.096,-0.548C0.095,-0.54 0.095,-0.531 0.094,-0.52C0.093,-0.509 0.093,-0.5 0.093,-0.492L0.093,-0.472C0.093,-0.465 0.094,-0.459 0.096,-0.454Z" style="fill-rule:nonzero;"/>
            </g>
            <g transform="matrix(50.2908,0,0,50.2908,333.674,91.9917)">
                <path d="M0.117,0.103C0.107,0.103 0.094,0.108 0.077,0.119C0.06,0.13 0.052,0.135 0.051,0.135C0.047,0.135 0.045,0.133 0.045,0.129C0.045,0.118 0.058,0.105 0.084,0.089L0.136,0.058C0.182,0.024 0.205,0.003 0.205,-0.005C0.197,-0.01 0.184,-0.017 0.166,-0.024C0.126,-0.041 0.098,-0.064 0.083,-0.095C0.071,-0.119 0.065,-0.155 0.065,-0.204C0.065,-0.213 0.065,-0.225 0.066,-0.238C0.066,-0.251 0.066,-0.267 0.067,-0.284C0.069,-0.32 0.07,-0.347 0.07,-0.365C0.07,-0.395 0.058,-0.417 0.033,-0.432C0.03,-0.433 0.027,-0.435 0.026,-0.437C0.026,-0.442 0.046,-0.461 0.085,-0.495C0.124,-0.529 0.145,-0.546 0.15,-0.546C0.159,-0.546 0.169,-0.542 0.178,-0.535C0.213,-0.508 0.231,-0.45 0.231,-0.363C0.231,-0.356 0.231,-0.347 0.231,-0.337C0.23,-0.327 0.23,-0.316 0.229,-0.303C0.228,-0.29 0.228,-0.28 0.228,-0.272L0.228,-0.252C0.228,-0.177 0.254,-0.14 0.306,-0.14C0.313,-0.14 0.319,-0.143 0.325,-0.15L0.34,-0.165C0.353,-0.188 0.359,-0.212 0.359,-0.237C0.359,-0.243 0.359,-0.252 0.358,-0.264C0.357,-0.275 0.356,-0.284 0.356,-0.29C0.356,-0.314 0.359,-0.352 0.365,-0.404C0.372,-0.461 0.431,-0.506 0.542,-0.541C0.545,-0.544 0.55,-0.546 0.557,-0.546C0.569,-0.546 0.575,-0.541 0.575,-0.531C0.575,-0.526 0.572,-0.524 0.565,-0.524C0.563,-0.524 0.56,-0.525 0.556,-0.526C0.551,-0.527 0.548,-0.527 0.546,-0.527C0.528,-0.527 0.519,-0.491 0.519,-0.419C0.519,-0.368 0.52,-0.322 0.523,-0.283C0.526,-0.244 0.53,-0.21 0.535,-0.182C0.538,-0.163 0.54,-0.128 0.54,-0.075L0.54,-0.028C0.539,-0.013 0.534,0.001 0.523,0.014C0.496,0.048 0.446,0.079 0.373,0.107C0.306,0.134 0.247,0.147 0.198,0.147C0.195,0.147 0.186,0.14 0.169,0.125C0.152,0.11 0.135,0.103 0.117,0.103ZM0.163,0.096C0.166,0.1 0.171,0.105 0.178,0.111C0.185,0.117 0.193,0.124 0.204,0.133L0.207,0.133C0.214,0.133 0.217,0.13 0.217,0.125C0.217,0.116 0.203,0.105 0.174,0.093L0.171,0.093C0.168,0.093 0.165,0.094 0.163,0.096ZM0.155,0.071C0.162,0.073 0.169,0.076 0.177,0.079C0.185,0.082 0.194,0.085 0.204,0.088C0.205,0.089 0.214,0.096 0.23,0.111C0.241,0.12 0.252,0.125 0.262,0.125L0.267,0.123C0.268,0.12 0.269,0.118 0.269,0.117C0.269,0.11 0.26,0.1 0.241,0.087C0.222,0.074 0.209,0.068 0.201,0.068L0.161,0.068C0.16,0.068 0.158,0.069 0.155,0.07L0.155,0.071ZM0.205,0.022C0.211,0.025 0.228,0.032 0.257,0.041C0.283,0.048 0.299,0.055 0.306,0.062C0.313,0.069 0.321,0.076 0.33,0.083C0.338,0.09 0.346,0.093 0.353,0.093C0.37,0.093 0.378,0.063 0.378,0.004C0.378,-0.011 0.377,-0.032 0.375,-0.059C0.374,-0.074 0.373,-0.086 0.372,-0.097C0.371,-0.107 0.371,-0.115 0.371,-0.122C0.37,-0.149 0.367,-0.163 0.362,-0.163C0.345,-0.143 0.323,-0.118 0.297,-0.088C0.27,-0.057 0.24,-0.021 0.205,0.02L0.205,0.022ZM0.394,0.021C0.394,0.024 0.394,0.029 0.393,0.035L0.387,0.071C0.386,0.076 0.385,0.081 0.385,0.085C0.394,0.085 0.402,0.08 0.409,0.071C0.416,0.061 0.419,0.052 0.419,0.043L0.419,-0.012C0.419,-0.063 0.414,-0.125 0.404,-0.198C0.4,-0.227 0.398,-0.304 0.398,-0.429L0.394,-0.431C0.385,-0.431 0.379,-0.416 0.375,-0.387L0.371,-0.329L0.371,-0.331C0.371,-0.326 0.371,-0.319 0.372,-0.312L0.374,-0.263C0.374,-0.255 0.374,-0.249 0.374,-0.244L0.374,-0.226C0.374,-0.223 0.374,-0.222 0.373,-0.225C0.387,-0.113 0.394,-0.05 0.394,-0.036L0.394,0.021ZM0.433,0.055C0.433,0.058 0.434,0.06 0.437,0.06C0.446,0.06 0.452,0.054 0.457,0.041C0.461,0.032 0.463,0.023 0.463,0.012L0.463,-0.057L0.446,-0.238C0.442,-0.28 0.44,-0.307 0.44,-0.319L0.44,-0.412C0.44,-0.416 0.44,-0.421 0.441,-0.427L0.446,-0.464C0.447,-0.47 0.447,-0.475 0.447,-0.479C0.423,-0.479 0.411,-0.433 0.411,-0.34C0.411,-0.308 0.412,-0.278 0.414,-0.25C0.415,-0.222 0.418,-0.195 0.421,-0.17C0.423,-0.157 0.425,-0.14 0.427,-0.119C0.429,-0.098 0.431,-0.074 0.434,-0.046C0.434,-0.037 0.435,-0.024 0.437,-0.006C0.439,0.011 0.44,0.023 0.44,0.03C0.44,0.031 0.439,0.035 0.437,0.041C0.434,0.047 0.433,0.052 0.433,0.055ZM0.211,-0.021C0.224,-0.021 0.23,-0.025 0.23,-0.033L0.226,-0.038C0.165,-0.067 0.129,-0.093 0.118,-0.114C0.109,-0.131 0.105,-0.176 0.105,-0.249C0.105,-0.256 0.105,-0.266 0.106,-0.277L0.109,-0.356C0.109,-0.367 0.109,-0.376 0.109,-0.383C0.109,-0.43 0.095,-0.454 0.067,-0.454C0.06,-0.454 0.057,-0.45 0.057,-0.442L0.076,-0.421C0.078,-0.41 0.08,-0.398 0.081,-0.386C0.082,-0.373 0.082,-0.36 0.083,-0.347C0.084,-0.328 0.084,-0.303 0.083,-0.273C0.082,-0.253 0.082,-0.237 0.082,-0.225L0.082,-0.198C0.082,-0.155 0.086,-0.124 0.094,-0.105C0.105,-0.081 0.128,-0.06 0.161,-0.042C0.188,-0.028 0.204,-0.021 0.211,-0.021ZM0.119,-0.237L0.119,-0.228C0.119,-0.225 0.119,-0.221 0.12,-0.216C0.121,-0.211 0.121,-0.206 0.122,-0.203C0.122,-0.199 0.122,-0.196 0.122,-0.195C0.124,-0.156 0.13,-0.128 0.14,-0.112C0.15,-0.096 0.172,-0.08 0.207,-0.063C0.228,-0.053 0.239,-0.048 0.242,-0.048C0.255,-0.048 0.261,-0.053 0.261,-0.064C0.258,-0.067 0.253,-0.071 0.247,-0.074C0.241,-0.077 0.234,-0.08 0.227,-0.083C0.216,-0.088 0.208,-0.092 0.203,-0.095C0.197,-0.098 0.193,-0.099 0.192,-0.1C0.161,-0.117 0.146,-0.151 0.146,-0.204L0.146,-0.221C0.146,-0.227 0.146,-0.234 0.147,-0.242C0.148,-0.251 0.148,-0.258 0.149,-0.264C0.149,-0.269 0.149,-0.274 0.149,-0.277C0.149,-0.279 0.149,-0.282 0.148,-0.285C0.147,-0.288 0.146,-0.291 0.146,-0.293C0.146,-0.299 0.147,-0.305 0.149,-0.31L0.149,-0.358C0.149,-0.44 0.134,-0.481 0.104,-0.481C0.092,-0.481 0.086,-0.477 0.086,-0.469C0.086,-0.467 0.095,-0.457 0.113,-0.439C0.12,-0.432 0.124,-0.412 0.124,-0.381C0.124,-0.365 0.123,-0.341 0.121,-0.309C0.12,-0.293 0.12,-0.279 0.12,-0.267C0.119,-0.255 0.119,-0.245 0.119,-0.237Z" style="fill-rule:nonzero;"/>
            </g>
        </g>
        <rect x="0" y="0" width="504" height="140" style="fill:none;"/>
    </g>
</svg>
